<?xml version="1.0" encoding="utf-8"?>
<!-- Generator: Adobe Illustrator 15.0.0, SVG Export Plug-In . SVG Version: 6.00 Build 0)  -->
<!DOCTYPE svg PUBLIC "-//W3C//DTD SVG 1.1//EN" "http://www.w3.org/Graphics/SVG/1.1/DTD/svg11.dtd">
<svg version="1.1" id="Layer_1" xmlns="http://www.w3.org/2000/svg" xmlns:xlink="http://www.w3.org/1999/xlink" x="0px" y="0px"
	 width="464.103px" height="106.41px" viewBox="0 0 464.103 106.41" enable-background="new 0 0 464.103 106.41"
	 xml:space="preserve">
<g>
	<g>
		<g>
			<path fill="#FFFFFF" stroke="#FFFFFF" stroke-width="1.3724" stroke-linecap="square" stroke-linejoin="round" d="M82.578,52.227
				c-6.195,0-11.494-2.195-15.904-6.584c-4.389-4.409-6.582-9.711-6.582-15.905c0-6.214,2.193-11.516,6.582-15.903
				c4.41-4.409,9.709-6.615,15.904-6.615c5.104,0,9.68,1.555,13.732,4.661c0.799,0.63,1.27,1.45,1.418,2.458
				c0.125,1.029-0.127,1.951-0.756,2.771c-0.631,0.817-1.449,1.289-2.457,1.416c-1.029,0.125-1.953-0.115-2.771-0.725
				c-2.688-2.077-5.742-3.117-9.166-3.117c-4.137,0-7.674,1.469-10.613,4.409s-4.41,6.487-4.41,10.645
				c0,4.139,1.471,7.677,4.41,10.614c2.939,2.94,6.477,4.409,10.613,4.409c3.906,0,7.285-1.3,10.143-3.905
				c0.756-0.691,1.648-1.019,2.676-0.976c1.029,0.043,1.891,0.45,2.584,1.228c0.693,0.756,1.018,1.648,0.975,2.678
				c-0.041,1.029-0.439,1.89-1.195,2.582C93.455,50.272,88.395,52.227,82.578,52.227z"/>
			<path fill="#FFFFFF" stroke="#FFFFFF" stroke-width="1.3724" stroke-linecap="square" stroke-linejoin="round" d="
				M120.479,52.227c-6.236,0-11.559-2.215-15.969-6.646c-4.432-4.409-6.645-9.732-6.645-15.97c0-6.234,2.213-11.569,6.645-16
				c4.41-4.409,9.732-6.612,15.969-6.612s11.568,2.203,16,6.612c4.408,4.431,6.613,9.766,6.613,16c0,6.237-2.205,11.561-6.613,15.97
				C132.047,50.012,126.715,52.227,120.479,52.227z M120.479,14.432c-4.18,0-7.748,1.479-10.709,4.441
				c-2.982,2.98-4.473,6.562-4.473,10.738c0,4.179,1.49,7.749,4.473,10.708c2.961,2.983,6.529,4.474,10.709,4.474
				c4.178,0,7.758-1.49,10.738-4.474c2.963-2.959,4.441-6.529,4.441-10.708c0-4.176-1.479-7.758-4.441-10.738
				C128.236,15.911,124.656,14.432,120.479,14.432z"/>
			<path fill="#FFFFFF" stroke="#FFFFFF" stroke-width="1.3724" stroke-linecap="square" stroke-linejoin="round" d="M176.74,50.809
				h-0.033v-0.032l-22.645-29.132v26.864c0,1.029-0.367,1.9-1.102,2.616c-0.715,0.734-1.586,1.102-2.615,1.102
				s-1.9-0.367-2.613-1.102c-0.734-0.716-1.102-1.587-1.102-2.616v-37.73c0-0.799,0.23-1.512,0.691-2.142
				c0.463-0.651,1.072-1.102,1.828-1.354c0.734-0.273,1.49-0.295,2.268-0.064c0.756,0.23,1.375,0.662,1.857,1.292l22.646,29.163
				V10.778c0-1.029,0.355-1.9,1.07-2.613c0.734-0.734,1.615-1.104,2.645-1.104s1.9,0.37,2.613,1.104
				c0.734,0.713,1.104,1.584,1.104,2.613v37.794c0,0.043-0.01,0.105-0.031,0.188c0,0.085,0,0.137,0,0.158
				c0,0.042-0.01,0.104-0.031,0.189c0,0.083-0.012,0.147-0.033,0.188l-0.029,0.158c-0.021,0.104-0.043,0.168-0.064,0.188
				c0,0.021-0.021,0.074-0.062,0.158c-0.021,0.085-0.041,0.147-0.062,0.189l-0.062,0.156l-0.096,0.158
				c-0.021,0.043-0.053,0.104-0.094,0.189l-0.094,0.095c-0.021,0.042-0.064,0.104-0.127,0.188l-0.094,0.126
				c-0.021,0.021-0.064,0.064-0.127,0.126c-0.062,0.085-0.105,0.126-0.125,0.126c0,0.021-0.043,0.064-0.127,0.126
				c-0.062,0.064-0.117,0.106-0.156,0.126c0.061-0.041,0.051-0.029-0.033,0.032l-0.031,0.032c-0.168,0.126-0.324,0.23-0.473,0.313
				h-0.031c-0.168,0.086-0.336,0.158-0.504,0.222c-0.084,0.041-0.105,0.052-0.062,0.03c-0.168,0.064-0.346,0.106-0.535,0.126
				l-0.094,0.032c-0.191,0.021-0.369,0.032-0.537,0.032c-0.125,0-0.262-0.011-0.41-0.032c0.043,0.021,0.021,0.021-0.061,0
				c-0.127-0.021-0.232-0.04-0.316-0.062c0.021,0.021-0.021,0.01-0.127-0.032c-0.104-0.021-0.188-0.043-0.252-0.064
				c-0.021,0-0.061-0.019-0.125-0.062c-0.105-0.021-0.188-0.054-0.252-0.094c-0.041,0-0.084-0.021-0.127-0.064
				c-0.082-0.041-0.156-0.072-0.219-0.094c-0.062-0.043-0.105-0.072-0.127-0.094c-0.062-0.043-0.137-0.097-0.219-0.158
				c-0.064-0.043-0.105-0.073-0.127-0.094c-0.105-0.086-0.201-0.169-0.283-0.252l-0.033-0.032v-0.032
				c-0.082-0.083-0.125-0.126-0.125-0.126S176.803,50.894,176.74,50.809z"/>
			<path fill="#FFFFFF" stroke="#FFFFFF" stroke-width="1.3724" stroke-linecap="square" stroke-linejoin="round" d="M219.52,50.809
				h-0.031v-0.032l-22.645-29.132v26.864c0,1.029-0.367,1.9-1.102,2.616c-0.715,0.734-1.586,1.102-2.613,1.102
				c-1.029,0-1.9-0.367-2.615-1.102c-0.736-0.716-1.104-1.587-1.104-2.616v-37.73c0-0.799,0.23-1.512,0.695-2.142
				c0.461-0.651,1.068-1.102,1.824-1.354c0.734-0.273,1.49-0.295,2.268-0.064c0.756,0.23,1.375,0.662,1.859,1.292l22.646,29.163
				V10.778c0-1.029,0.355-1.9,1.068-2.613c0.734-0.734,1.617-1.104,2.646-1.104s1.9,0.37,2.613,1.104
				c0.734,0.713,1.104,1.584,1.104,2.613v37.794c0,0.043-0.01,0.105-0.031,0.188c0,0.085,0,0.137,0,0.158
				c0,0.042-0.012,0.104-0.033,0.189c0,0.083-0.01,0.147-0.031,0.188l-0.029,0.158c-0.021,0.104-0.043,0.168-0.064,0.188
				c0,0.021-0.021,0.074-0.062,0.158c-0.021,0.085-0.043,0.147-0.064,0.189l-0.061,0.156l-0.096,0.158
				c-0.021,0.043-0.053,0.104-0.096,0.189l-0.094,0.095c-0.021,0.042-0.062,0.104-0.125,0.188l-0.094,0.126
				c-0.021,0.021-0.064,0.064-0.127,0.126c-0.064,0.085-0.105,0.126-0.125,0.126c0,0.021-0.043,0.064-0.127,0.126
				c-0.064,0.064-0.117,0.106-0.158,0.126c0.062-0.041,0.053-0.029-0.031,0.032l-0.031,0.032c-0.168,0.126-0.326,0.23-0.473,0.313
				h-0.031c-0.168,0.086-0.336,0.158-0.504,0.222c-0.084,0.041-0.105,0.052-0.062,0.03c-0.17,0.064-0.346,0.106-0.537,0.126
				l-0.094,0.032c-0.189,0.021-0.367,0.032-0.535,0.032c-0.127,0-0.264-0.011-0.41-0.032c0.043,0.021,0.021,0.021-0.062,0
				c-0.125-0.021-0.23-0.04-0.314-0.062c0.02,0.021-0.021,0.01-0.127-0.032c-0.105-0.021-0.188-0.043-0.252-0.064
				c-0.021,0-0.062-0.019-0.125-0.062c-0.105-0.021-0.189-0.054-0.252-0.094c-0.041,0-0.084-0.021-0.127-0.064
				c-0.084-0.041-0.156-0.072-0.221-0.094c-0.061-0.043-0.104-0.072-0.125-0.094c-0.062-0.043-0.137-0.097-0.221-0.158
				c-0.062-0.043-0.104-0.073-0.125-0.094c-0.105-0.086-0.201-0.169-0.285-0.252l-0.031-0.032v-0.032
				c-0.084-0.083-0.125-0.126-0.125-0.126S219.584,50.894,219.52,50.809z"/>
			<path fill="#FFFFFF" stroke="#FFFFFF" stroke-width="1.3724" stroke-linecap="square" stroke-linejoin="round" d="M258.68,44.761
				c1.027,0,1.898,0.367,2.613,1.103c0.734,0.736,1.102,1.618,1.102,2.646c0,1.029-0.367,1.9-1.102,2.616
				c-0.715,0.734-1.586,1.102-2.613,1.102h-22.803c-1.029,0-1.9-0.367-2.615-1.102c-0.734-0.716-1.102-1.587-1.102-2.616V10.746
				c0-1.048,0.367-1.93,1.102-2.646c0.715-0.734,1.586-1.102,2.615-1.102h0.029l22.773,0.062c1.027,0,1.908,0.37,2.645,1.104
				c0.715,0.734,1.07,1.616,1.07,2.646s-0.367,1.9-1.102,2.613c-0.715,0.734-1.586,1.102-2.613,1.102h-0.031l-19.023-0.062v11.433
				h13.732c1.027,0,1.91,0.356,2.645,1.069c0.734,0.737,1.102,1.619,1.102,2.646c0,1.029-0.367,1.911-1.102,2.646
				c-0.734,0.716-1.617,1.072-2.645,1.072h-13.732v11.432H258.68z"/>
			<path fill="#FFFFFF" stroke="#FFFFFF" stroke-width="1.3724" stroke-linecap="square" stroke-linejoin="round" d="
				M284.168,52.227c-6.193,0-11.494-2.195-15.904-6.584c-4.389-4.409-6.582-9.711-6.582-15.905c0-6.214,2.193-11.516,6.582-15.903
				c4.41-4.409,9.711-6.615,15.904-6.615c5.104,0,9.68,1.555,13.732,4.661c0.799,0.63,1.271,1.45,1.418,2.458
				c0.127,1.029-0.125,1.951-0.756,2.771c-0.629,0.817-1.449,1.289-2.457,1.416c-1.029,0.125-1.953-0.115-2.771-0.725
				c-2.688-2.077-5.742-3.117-9.166-3.117c-4.135,0-7.674,1.469-10.613,4.409s-4.408,6.487-4.408,10.645
				c0,4.139,1.469,7.677,4.408,10.614c2.939,2.94,6.479,4.409,10.613,4.409c3.906,0,7.285-1.3,10.143-3.905
				c0.756-0.691,1.648-1.019,2.678-0.976c1.027,0.043,1.889,0.45,2.582,1.228c0.693,0.756,1.02,1.648,0.977,2.678
				s-0.439,1.89-1.195,2.582C295.045,50.272,289.984,52.227,284.168,52.227z"/>
			<path fill="#FFFFFF" stroke="#FFFFFF" stroke-width="1.3724" stroke-linecap="square" stroke-linejoin="round" d="
				M312.211,14.432h-9.354c-1.029,0-1.912-0.367-2.646-1.102c-0.715-0.716-1.07-1.587-1.07-2.616c0-1.026,0.355-1.897,1.07-2.613
				c0.734-0.734,1.617-1.102,2.646-1.102h26.172c1.008,0,1.879,0.367,2.613,1.102c0.715,0.716,1.072,1.587,1.072,2.613
				c0,1.029-0.357,1.9-1.072,2.616c-0.734,0.734-1.605,1.102-2.613,1.102h-9.385v34.077c0,1.029-0.369,1.911-1.104,2.646
				c-0.715,0.716-1.586,1.072-2.615,1.072s-1.9-0.356-2.613-1.072c-0.734-0.734-1.102-1.616-1.102-2.646V14.432z"/>
			<path fill="#FFFFFF" stroke="#FFFFFF" stroke-width="1.3724" stroke-linecap="square" stroke-linejoin="round" d="M366.477,8.007
				c0.797,0.63,1.26,1.447,1.385,2.455c0.105,1.029-0.168,1.943-0.818,2.742l-13.639,17.069v18.235c0,1.029-0.367,1.911-1.102,2.646
				c-0.715,0.716-1.586,1.072-2.613,1.072c-1.029,0-1.9-0.356-2.615-1.072c-0.736-0.734-1.104-1.616-1.104-2.646V30.273
				l-13.637-17.069c-0.65-0.799-0.912-1.713-0.785-2.742c0.104-1.008,0.555-1.825,1.354-2.455c0.797-0.651,1.709-0.925,2.738-0.82
				c1.008,0.126,1.838,0.59,2.49,1.386l11.559,14.488l11.59-14.488c0.631-0.796,1.447-1.26,2.455-1.386
				C364.764,7.082,365.678,7.355,366.477,8.007z"/>
			<path fill="#EFE925" d="M415.197,7.061c0.797,0.233,1.449,0.684,1.953,1.356c0.504,0.651,0.756,1.396,0.756,2.235v37.856
				c0,1.029-0.359,1.9-1.072,2.616c-0.734,0.734-1.615,1.102-2.645,1.102s-1.912-0.367-2.646-1.102
				c-0.715-0.716-1.07-1.587-1.07-2.616V24.007l-11.748,19.4v0.032l-0.031,0.029l-0.031,0.032l-0.031,0.032
				c-0.064,0.104-0.105,0.18-0.127,0.22l-0.094,0.126c-0.084,0.086-0.137,0.137-0.158,0.158s-0.062,0.062-0.125,0.126
				c-0.064,0.062-0.105,0.104-0.127,0.126c-0.041,0.043-0.105,0.094-0.189,0.158l-0.094,0.094c-0.064,0.043-0.137,0.083-0.221,0.126
				c0,0.021-0.01,0.032-0.031,0.032l-0.031,0.029H397.4c-0.041,0.043-0.115,0.086-0.219,0.126c-0.084,0.043-0.115,0.064-0.094,0.064
				c-0.021,0-0.086,0.021-0.191,0.062c-0.482,0.212-0.986,0.306-1.512,0.284h-0.061c0.039,0,0-0.011-0.127-0.032
				c-0.273-0.019-0.547-0.072-0.82-0.155c-0.104-0.021-0.146-0.032-0.125-0.032c0.043,0.021,0,0.011-0.127-0.032
				c-0.104-0.04-0.178-0.072-0.219-0.094c0.021,0,0-0.021-0.062-0.064c-0.107-0.04-0.189-0.083-0.252-0.126h-0.031l-0.033-0.029
				l-0.031-0.032c-0.084-0.043-0.156-0.094-0.221-0.158c0,0.021-0.031,0-0.094-0.062c-0.086-0.064-0.146-0.115-0.189-0.158
				c-0.021-0.021-0.062-0.064-0.127-0.126c-0.061-0.064-0.104-0.104-0.125-0.126c-0.021-0.043-0.072-0.094-0.156-0.158
				c-0.043-0.062-0.064-0.104-0.064-0.126c-0.043-0.04-0.094-0.115-0.158-0.22l-0.029-0.032c0-0.021-0.012-0.032-0.031-0.032v-0.029
				c0-0.021-0.012-0.032-0.033-0.032l-11.715-19.4v24.502c0,1.029-0.367,1.9-1.102,2.616c-0.736,0.734-1.619,1.102-2.646,1.102
				c-1.029,0-1.9-0.367-2.615-1.102c-0.734-0.716-1.102-1.587-1.102-2.616V10.652c0-0.839,0.252-1.584,0.756-2.235
				c0.504-0.673,1.166-1.123,1.984-1.356c0.797-0.209,1.586-0.166,2.363,0.126c0.775,0.316,1.385,0.831,1.824,1.544l15.496,25.606
				L411.008,8.73c0.42-0.713,1.018-1.228,1.795-1.544c0.777-0.292,1.166-0.439,1.166-0.439S414.379,6.852,415.197,7.061z"/>
			<path fill="#EFE925" d="M450.449,44.761c1.029,0,1.902,0.367,2.615,1.103c0.734,0.736,1.102,1.618,1.102,2.646
				c0,1.029-0.367,1.9-1.102,2.616c-0.713,0.734-1.586,1.102-2.615,1.102h-22.801c-1.029,0-1.9-0.367-2.615-1.102
				c-0.734-0.716-1.102-1.587-1.102-2.616V10.746c0-1.048,0.367-1.93,1.102-2.646c0.715-0.734,1.586-1.102,2.615-1.102h0.031
				l22.77,0.062c1.029,0,1.914,0.37,2.648,1.104c0.713,0.734,1.068,1.616,1.068,2.646s-0.367,1.9-1.102,2.613
				c-0.713,0.734-1.586,1.102-2.615,1.102h-0.031l-19.023-0.062v11.433h13.732c1.029,0,1.91,0.356,2.645,1.069
				c0.734,0.737,1.104,1.619,1.104,2.646c0,1.029-0.369,1.911-1.104,2.646c-0.734,0.716-1.615,1.072-2.645,1.072h-13.732v11.432
				H450.449z"/>
		</g>
		<g>
			<g>
				<path fill="none" stroke="#EFE925" stroke-width="7.8482" stroke-linecap="round" stroke-linejoin="round" d="M71.088,63.938
					c-8.219-2.424-14.34-7.409-18.42-14.786c-4.164-7.519-5.023-15.315-2.754-23.442"/>
				<path fill="none" stroke="#EFE925" stroke-width="7.8482" stroke-linecap="round" stroke-linejoin="round" d="M66.312,80.76
					C53.463,76.967,43.889,69.169,37.5,57.636c-6.512-11.757-7.857-23.961-4.303-36.672"/>
				<path fill="none" stroke="#EFE925" stroke-width="7.8482" stroke-linecap="round" stroke-linejoin="round" d="M61.533,97.582
					C44.092,92.299,31.02,81.803,22.328,66.113c-8.857-15.997-10.814-32.637-5.854-49.896"/>
			</g>
		</g>
	</g>
	<g>
		<g>
			<path fill="#00CDEF" stroke="#00CDEF" stroke-width="1.3724" stroke-linecap="square" stroke-linejoin="round" d="
				M-499.833,42.638c-6.195,0-11.494-2.195-15.904-6.584c-4.389-4.41-6.582-9.711-6.582-15.906c0-6.213,2.193-11.516,6.582-15.902
				c4.41-4.41,9.709-6.615,15.904-6.615c5.104,0,9.68,1.555,13.732,4.66c0.799,0.631,1.27,1.451,1.418,2.459
				c0.125,1.029-0.127,1.951-0.756,2.771c-0.631,0.816-1.449,1.289-2.457,1.416c-1.029,0.125-1.953-0.115-2.771-0.725
				c-2.688-2.078-5.742-3.117-9.166-3.117c-4.137,0-7.674,1.469-10.613,4.408c-2.939,2.941-4.41,6.488-4.41,10.645
				c0,4.139,1.471,7.678,4.41,10.615c2.939,2.939,6.477,4.408,10.613,4.408c3.906,0,7.285-1.299,10.143-3.904
				c0.756-0.691,1.648-1.02,2.676-0.977c1.029,0.043,1.891,0.451,2.584,1.229c0.693,0.756,1.018,1.648,0.975,2.678
				c-0.041,1.029-0.439,1.889-1.195,2.582C-488.956,40.683-494.016,42.638-499.833,42.638z"/>
			<path fill="#00CDEF" stroke="#00CDEF" stroke-width="1.3724" stroke-linecap="square" stroke-linejoin="round" d="
				M-461.932,42.638c-6.236,0-11.559-2.215-15.969-6.646c-4.432-4.408-6.645-9.732-6.645-15.969c0-6.234,2.213-11.57,6.645-16
				c4.41-4.41,9.732-6.613,15.969-6.613s11.568,2.203,16,6.613c4.408,4.43,6.613,9.766,6.613,16c0,6.236-2.205,11.561-6.613,15.969
				C-450.364,40.423-455.696,42.638-461.932,42.638z M-461.932,4.843c-4.18,0-7.748,1.479-10.709,4.441
				c-2.982,2.98-4.473,6.562-4.473,10.738c0,4.178,1.49,7.748,4.473,10.707c2.961,2.984,6.529,4.475,10.709,4.475
				c4.178,0,7.758-1.49,10.738-4.475c2.963-2.959,4.441-6.529,4.441-10.707c0-4.176-1.479-7.758-4.441-10.738
				C-454.174,6.321-457.754,4.843-461.932,4.843z"/>
			<path fill="#00CDEF" stroke="#00CDEF" stroke-width="1.3724" stroke-linecap="square" stroke-linejoin="round" d="M-405.67,41.22
				h-0.033v-0.033l-22.645-29.131v26.863c0,1.029-0.367,1.9-1.102,2.617c-0.715,0.734-1.586,1.102-2.615,1.102
				s-1.9-0.367-2.613-1.102c-0.734-0.717-1.102-1.588-1.102-2.617V1.188c0-0.799,0.23-1.512,0.691-2.141
				c0.463-0.652,1.072-1.102,1.828-1.354c0.734-0.273,1.49-0.295,2.268-0.064c0.756,0.23,1.375,0.662,1.857,1.291l22.646,29.164
				V1.188c0-1.029,0.355-1.9,1.07-2.613c0.734-0.734,1.615-1.104,2.645-1.104s1.9,0.369,2.613,1.104
				c0.734,0.713,1.104,1.584,1.104,2.613v37.795c0,0.043-0.01,0.105-0.031,0.188c0,0.086,0,0.137,0,0.158
				c0,0.043-0.01,0.105-0.031,0.189c0,0.084-0.012,0.148-0.033,0.189l-0.029,0.158c-0.021,0.104-0.043,0.168-0.064,0.188
				c0,0.021-0.021,0.074-0.062,0.158c-0.021,0.084-0.041,0.146-0.062,0.189l-0.062,0.156l-0.096,0.158
				c-0.021,0.043-0.053,0.104-0.094,0.189l-0.094,0.094c-0.021,0.043-0.064,0.105-0.127,0.188l-0.094,0.127
				c-0.021,0.021-0.064,0.064-0.127,0.125c-0.062,0.086-0.105,0.127-0.125,0.127c0,0.021-0.043,0.064-0.127,0.125
				c-0.062,0.064-0.117,0.107-0.156,0.127c0.061-0.041,0.051-0.029-0.033,0.031l-0.031,0.033c-0.168,0.125-0.324,0.23-0.473,0.312
				h-0.031c-0.168,0.086-0.336,0.158-0.504,0.223c-0.084,0.041-0.105,0.051-0.062,0.029c-0.168,0.064-0.346,0.107-0.535,0.127
				l-0.094,0.031c-0.191,0.021-0.369,0.033-0.537,0.033c-0.125,0-0.262-0.012-0.41-0.033c0.043,0.021,0.021,0.021-0.061,0
				c-0.127-0.021-0.232-0.039-0.316-0.061c0.021,0.021-0.021,0.01-0.127-0.033c-0.104-0.021-0.188-0.043-0.252-0.064
				c-0.021,0-0.061-0.018-0.125-0.061c-0.105-0.021-0.188-0.055-0.252-0.094c-0.041,0-0.084-0.021-0.127-0.064
				c-0.082-0.041-0.156-0.072-0.219-0.094c-0.062-0.043-0.105-0.072-0.127-0.094c-0.062-0.043-0.137-0.098-0.219-0.158
				c-0.064-0.043-0.105-0.074-0.127-0.094c-0.105-0.086-0.201-0.17-0.283-0.252l-0.033-0.033v-0.031
				c-0.082-0.084-0.125-0.127-0.125-0.127S-405.608,41.304-405.67,41.22z"/>
			<path fill="#00CDEF" stroke="#00CDEF" stroke-width="1.3724" stroke-linecap="square" stroke-linejoin="round" d="
				M-362.891,41.22h-0.031v-0.033l-22.645-29.131v26.863c0,1.029-0.367,1.9-1.102,2.617c-0.715,0.734-1.586,1.102-2.613,1.102
				c-1.029,0-1.9-0.367-2.615-1.102c-0.736-0.717-1.104-1.588-1.104-2.617V1.188c0-0.799,0.23-1.512,0.695-2.141
				c0.461-0.652,1.068-1.102,1.824-1.354c0.734-0.273,1.49-0.295,2.268-0.064c0.756,0.23,1.375,0.662,1.859,1.291l22.646,29.164
				V1.188c0-1.029,0.355-1.9,1.068-2.613c0.734-0.734,1.617-1.104,2.646-1.104s1.9,0.369,2.613,1.104
				c0.734,0.713,1.104,1.584,1.104,2.613v37.795c0,0.043-0.01,0.105-0.031,0.188c0,0.086,0,0.137,0,0.158
				c0,0.043-0.012,0.105-0.033,0.189c0,0.084-0.01,0.148-0.031,0.189l-0.029,0.158c-0.021,0.104-0.043,0.168-0.064,0.188
				c0,0.021-0.021,0.074-0.062,0.158c-0.021,0.084-0.043,0.146-0.064,0.189l-0.061,0.156l-0.096,0.158
				c-0.021,0.043-0.053,0.104-0.096,0.189l-0.094,0.094c-0.021,0.043-0.062,0.105-0.125,0.188l-0.094,0.127
				c-0.021,0.021-0.064,0.064-0.127,0.125c-0.064,0.086-0.105,0.127-0.125,0.127c0,0.021-0.043,0.064-0.127,0.125
				c-0.064,0.064-0.117,0.107-0.158,0.127c0.062-0.041,0.053-0.029-0.031,0.031l-0.031,0.033c-0.168,0.125-0.326,0.23-0.473,0.312
				h-0.031c-0.168,0.086-0.336,0.158-0.504,0.223c-0.084,0.041-0.105,0.051-0.062,0.029c-0.17,0.064-0.346,0.107-0.537,0.127
				l-0.094,0.031c-0.189,0.021-0.367,0.033-0.535,0.033c-0.127,0-0.264-0.012-0.41-0.033c0.043,0.021,0.021,0.021-0.062,0
				c-0.125-0.021-0.23-0.039-0.314-0.061c0.02,0.021-0.021,0.01-0.127-0.033c-0.105-0.021-0.188-0.043-0.252-0.064
				c-0.021,0-0.062-0.018-0.125-0.061c-0.105-0.021-0.189-0.055-0.252-0.094c-0.041,0-0.084-0.021-0.127-0.064
				c-0.084-0.041-0.156-0.072-0.221-0.094c-0.061-0.043-0.104-0.072-0.125-0.094c-0.062-0.043-0.137-0.098-0.221-0.158
				c-0.062-0.043-0.104-0.074-0.125-0.094c-0.105-0.086-0.201-0.17-0.285-0.252l-0.031-0.033v-0.031
				c-0.084-0.084-0.125-0.127-0.125-0.127S-362.827,41.304-362.891,41.22z"/>
			<path fill="#00CDEF" stroke="#00CDEF" stroke-width="1.3724" stroke-linecap="square" stroke-linejoin="round" d="
				M-323.731,35.171c1.027,0,1.898,0.367,2.613,1.104c0.734,0.736,1.102,1.617,1.102,2.645c0,1.029-0.367,1.9-1.102,2.617
				c-0.715,0.734-1.586,1.102-2.613,1.102h-22.803c-1.029,0-1.9-0.367-2.615-1.102c-0.734-0.717-1.102-1.588-1.102-2.617V1.157
				c0-1.049,0.367-1.93,1.102-2.646c0.715-0.734,1.586-1.102,2.615-1.102h0.029l22.773,0.062c1.027,0,1.908,0.369,2.645,1.104
				c0.715,0.734,1.07,1.617,1.07,2.646s-0.367,1.9-1.102,2.613c-0.715,0.734-1.586,1.102-2.613,1.102h-0.031l-19.023-0.062v11.434
				h13.732c1.027,0,1.91,0.355,2.645,1.068c0.734,0.738,1.102,1.619,1.102,2.646c0,1.029-0.367,1.91-1.102,2.645
				c-0.734,0.717-1.617,1.072-2.645,1.072h-13.732v11.432H-323.731z"/>
			<path fill="#00CDEF" stroke="#00CDEF" stroke-width="1.3724" stroke-linecap="square" stroke-linejoin="round" d="
				M-298.243,42.638c-6.193,0-11.494-2.195-15.904-6.584c-4.389-4.41-6.582-9.711-6.582-15.906c0-6.213,2.193-11.516,6.582-15.902
				c4.41-4.41,9.711-6.615,15.904-6.615c5.104,0,9.68,1.555,13.732,4.66c0.799,0.631,1.271,1.451,1.418,2.459
				c0.127,1.029-0.125,1.951-0.756,2.771c-0.629,0.816-1.449,1.289-2.457,1.416c-1.029,0.125-1.953-0.115-2.771-0.725
				c-2.688-2.078-5.742-3.117-9.166-3.117c-4.135,0-7.674,1.469-10.613,4.408c-2.939,2.941-4.408,6.488-4.408,10.645
				c0,4.139,1.469,7.678,4.408,10.615c2.939,2.939,6.479,4.408,10.613,4.408c3.906,0,7.285-1.299,10.143-3.904
				c0.756-0.691,1.648-1.02,2.678-0.977c1.027,0.043,1.889,0.451,2.582,1.229c0.693,0.756,1.02,1.648,0.977,2.678
				s-0.439,1.889-1.195,2.582C-287.366,40.683-292.426,42.638-298.243,42.638z"/>
			<path fill="#00CDEF" stroke="#00CDEF" stroke-width="1.3724" stroke-linecap="square" stroke-linejoin="round" d="M-270.2,4.843
				h-9.354c-1.029,0-1.912-0.367-2.646-1.102c-0.715-0.717-1.07-1.588-1.07-2.617c0-1.025,0.355-1.896,1.07-2.613
				c0.734-0.734,1.617-1.102,2.646-1.102h26.172c1.008,0,1.879,0.367,2.613,1.102c0.715,0.717,1.072,1.588,1.072,2.613
				c0,1.029-0.357,1.9-1.072,2.617c-0.734,0.734-1.605,1.102-2.613,1.102h-9.385v34.076c0,1.029-0.369,1.912-1.104,2.646
				c-0.715,0.715-1.586,1.072-2.615,1.072s-1.9-0.357-2.613-1.072c-0.734-0.734-1.102-1.617-1.102-2.646V4.843z"/>
			<path fill="#00CDEF" stroke="#00CDEF" stroke-width="1.3724" stroke-linecap="square" stroke-linejoin="round" d="
				M-215.934-1.583c0.797,0.631,1.26,1.447,1.385,2.455c0.105,1.029-0.168,1.943-0.818,2.742l-13.639,17.07v18.234
				c0,1.029-0.367,1.912-1.102,2.646c-0.715,0.715-1.586,1.072-2.613,1.072c-1.029,0-1.9-0.357-2.615-1.072
				c-0.736-0.734-1.104-1.617-1.104-2.646V20.685l-13.637-17.07c-0.65-0.799-0.912-1.713-0.785-2.742
				c0.104-1.008,0.555-1.824,1.354-2.455c0.797-0.65,1.709-0.924,2.738-0.82c1.008,0.127,1.838,0.59,2.49,1.387l11.559,14.488
				l11.59-14.488c0.631-0.797,1.447-1.26,2.455-1.387C-217.647-2.507-216.733-2.233-215.934-1.583z"/>
			<path fill="#EFE925" d="M-167.213-2.528c0.797,0.232,1.449,0.684,1.953,1.355c0.504,0.652,0.756,1.396,0.756,2.236v37.855
				c0,1.029-0.359,1.9-1.072,2.617c-0.734,0.734-1.615,1.102-2.645,1.102s-1.912-0.367-2.646-1.102
				c-0.715-0.717-1.07-1.588-1.07-2.617V14.417l-11.748,19.4v0.033l-0.031,0.029l-0.031,0.031l-0.031,0.033
				c-0.064,0.104-0.105,0.18-0.127,0.219L-184,34.29c-0.084,0.086-0.137,0.137-0.158,0.158s-0.062,0.061-0.125,0.125
				c-0.064,0.062-0.105,0.105-0.127,0.127c-0.041,0.043-0.105,0.094-0.189,0.158l-0.094,0.094c-0.064,0.043-0.137,0.082-0.221,0.125
				c0,0.021-0.01,0.033-0.031,0.033l-0.031,0.029h-0.033c-0.041,0.043-0.115,0.086-0.219,0.125
				c-0.084,0.043-0.115,0.064-0.094,0.064c-0.021,0-0.086,0.021-0.191,0.062c-0.482,0.211-0.986,0.305-1.512,0.283h-0.061
				c0.039,0,0-0.01-0.127-0.031c-0.273-0.02-0.547-0.072-0.82-0.156c-0.104-0.021-0.146-0.031-0.125-0.031
				c0.043,0.021,0,0.01-0.127-0.033c-0.104-0.039-0.178-0.072-0.219-0.094c0.021,0,0-0.021-0.062-0.064
				c-0.107-0.039-0.189-0.082-0.252-0.125h-0.031l-0.033-0.029l-0.031-0.033c-0.084-0.043-0.156-0.094-0.221-0.158
				c0,0.021-0.031,0-0.094-0.061c-0.086-0.064-0.146-0.115-0.189-0.158c-0.021-0.021-0.062-0.064-0.127-0.127
				c-0.061-0.064-0.104-0.104-0.125-0.125c-0.021-0.043-0.072-0.094-0.156-0.158c-0.043-0.062-0.064-0.105-0.064-0.127
				c-0.043-0.039-0.094-0.115-0.158-0.219l-0.029-0.033c0-0.021-0.012-0.031-0.031-0.031v-0.029c0-0.021-0.012-0.033-0.033-0.033
				l-11.715-19.4v24.502c0,1.029-0.367,1.9-1.102,2.617c-0.736,0.734-1.619,1.102-2.646,1.102c-1.029,0-1.9-0.367-2.615-1.102
				c-0.734-0.717-1.102-1.588-1.102-2.617V1.063c0-0.84,0.252-1.584,0.756-2.236c0.504-0.672,1.166-1.123,1.984-1.355
				c0.797-0.209,1.586-0.166,2.363,0.125c0.775,0.316,1.385,0.832,1.824,1.545l15.496,25.605l15.496-25.605
				c0.42-0.713,1.018-1.229,1.795-1.545c0.777-0.291,1.166-0.439,1.166-0.439S-168.032-2.737-167.213-2.528z"/>
			<path fill="#EFE925" d="M-131.961,35.171c1.029,0,1.902,0.367,2.615,1.104c0.734,0.736,1.102,1.617,1.102,2.645
				c0,1.029-0.367,1.9-1.102,2.617c-0.713,0.734-1.586,1.102-2.615,1.102h-22.801c-1.029,0-1.9-0.367-2.615-1.102
				c-0.734-0.717-1.102-1.588-1.102-2.617V1.157c0-1.049,0.367-1.93,1.102-2.646c0.715-0.734,1.586-1.102,2.615-1.102h0.031
				l22.77,0.062c1.029,0,1.914,0.369,2.648,1.104c0.713,0.734,1.068,1.617,1.068,2.646s-0.367,1.9-1.102,2.613
				c-0.713,0.734-1.586,1.102-2.615,1.102h-0.031l-19.023-0.062v11.434h13.732c1.029,0,1.91,0.355,2.645,1.068
				c0.734,0.738,1.104,1.619,1.104,2.646c0,1.029-0.369,1.91-1.104,2.645c-0.734,0.717-1.615,1.072-2.645,1.072h-13.732v11.432
				H-131.961z"/>
		</g>
		<g>
			<g>
				<path fill="none" stroke="#EFE925" stroke-width="7.8482" stroke-linecap="round" stroke-linejoin="round" d="M-511.323,54.349
					c-8.219-2.424-14.34-7.41-18.42-14.787c-4.164-7.518-5.023-15.314-2.754-23.441"/>
				<path fill="none" stroke="#EFE925" stroke-width="7.8482" stroke-linecap="round" stroke-linejoin="round" d="M-516.098,71.171
					c-12.85-3.793-22.424-11.592-28.812-23.125c-6.512-11.756-7.857-23.961-4.303-36.672"/>
				<path fill="none" stroke="#EFE925" stroke-width="7.8482" stroke-linecap="round" stroke-linejoin="round" d="M-520.877,87.993
					c-17.441-5.283-30.514-15.779-39.205-31.469c-8.857-15.998-10.814-32.637-5.854-49.896"/>
			</g>
		</g>
	</g>
</g>
</svg>
